module gitlab.com/PatrickDomnick/bosch-exporter

go 1.16

require (
	github.com/armon/consul-api v0.0.0-20180202201655-eb2c6b5be1b6 // indirect
	github.com/coreos/etcd v3.3.10+incompatible // indirect
	github.com/coreos/go-etcd v2.0.0+incompatible // indirect
	github.com/prometheus/client_golang v1.5.1
	github.com/sirupsen/logrus v1.8.1
	github.com/spf13/viper v1.9.0 // indirect
	github.com/ugorji/go/codec v0.0.0-20181204163529-d75b2dcb6bc8 // indirect
	github.com/xordataexchange/crypt v0.0.3-0.20170626215501-b2862e3d0a77 // indirect
	golang.org/x/time v0.0.0-20210723032227-1f47c861a9ac
)
